<svg xmlns="http://www.w3.org/2000/svg" width="22.628" height="22.628" viewBox="0 0 22.628 22.628">
  <path id="Close_Icon" data-name="Close Icon" d="M11.314,12.728l-9.9,9.9L0,21.213l9.9-9.9L0,1.414,1.414,0l9.9,9.9,9.9-9.9,1.415,1.414-9.9,9.9,9.9,9.9-1.415,1.415Z" fill="#fff"/>
</svg>
